^C:\USERS\HYPER\SOURCE\REPOS\CONSOLEAPPLICATION1\CONSOLEAPPLICATION1\CONSOLEAPPLICATION1.CPP
C:\USERS\HYPER\SOURCE\REPOS\CONSOLEAPPLICATION1\CONSOLEAPPLICATION1\DEBUG\VC142.PDB
C:\USERS\HYPER\SOURCE\REPOS\CONSOLEAPPLICATION1\CONSOLEAPPLICATION1\DEBUG\VC142.IDB
C:\USERS\HYPER\SOURCE\REPOS\CONSOLEAPPLICATION1\CONSOLEAPPLICATION1\DEBUG\CONSOLEAPPLICATION1.OBJ
